[gd_scene load_steps=2 format=2]

[ext_resource path="res://gui/CustomScrollContainer.gd" type="Script" id=1]

[node name="CustomScrollContainer" type="ScrollContainer"]
margin_right = 12.0
margin_bottom = 12.0
script = ExtResource( 1 )

[node name="Tween" type="Tween" parent="."]
