[gd_scene load_steps=5 format=2]

[ext_resource path="res://characters/hd/HDTownEntry.gd" type="Script" id=1]
[ext_resource path="res://assets/characters/hd/HD.tscn" type="PackedScene" id=2]


[sub_resource type="BoxShape" id=1]
extents = Vector3( 1.3, 1, 1.3 )

[sub_resource type="BoxShape" id=2]
extents = Vector3( 0.502093, 1, 0.446335 )

[node name="HD" type="Spatial"]
script = ExtResource( 1 )

[node name="InteractArea" type="Area" parent="."]

[node name="CollisionShape" type="CollisionShape" parent="InteractArea"]
transform = Transform( 1, 0, 0, 0, 1, 0, 0, 0, 1, 0, 0.995451, 0 )
shape = SubResource( 1 )

[node name="Model" parent="." instance=ExtResource( 2 )]

[node name="StaticBody" type="StaticBody" parent="."]
transform = Transform( 1, 0, 0, 0, 1, 0, 0, 0, 1, 0, 1.00024, 0 )

[node name="CollisionShape" type="CollisionShape" parent="StaticBody"]
shape = SubResource( 2 )
