[gd_scene load_steps=4 format=2]

[ext_resource path="res://characters/dogge/Dogge.gd" type="Script" id=1]
[ext_resource path="res://assets/characters/dogge/Dogge.tscn" type="PackedScene" id=2]

[sub_resource type="BoxShape" id=1]
extents = Vector3( 0.299767, 1, 0.315162 )

[node name="Dogge" type="Spatial"]
script = ExtResource( 1 )

[node name="Model" parent="." instance=ExtResource( 2 )]

[node name="StaticBody" type="StaticBody" parent="."]

[node name="CollisionShape" type="CollisionShape" parent="StaticBody"]
transform = Transform( 1, 0, 0, 0, 1, 0, 0, 0, 1, 0, 1, -0.0816518 )
shape = SubResource( 1 )
